<svg xmlns="http://www.w3.org/2000/svg" xmlns:xlink="http://www.w3.org/1999/xlink" width="1366" height="2942" viewBox="0 0 1366 2942">
  <defs>
    <clipPath id="clip-Web_1366_6">
      <rect width="1366" height="2942"/>
    </clipPath>
  </defs>
  <g id="Web_1366_6" data-name="Web 1366 – 6" clip-path="url(#clip-Web_1366_6)">
    <rect width="1366" height="2942" fill="#fff"/>
    <path id="Union_1" data-name="Union 1" d="M9615.938,684.646c-26.359-206.223-34.113-336.47-282.2-322.513S9081,128,9081,128h824.89l-34.111,793.878S9642.295,890.866,9615.938,684.646ZM9081,127.877s4.651-248.086,252.739-234.131,255.84-116.29,282.2-322.513S9871.777-666,9871.777-666l34.111,793.878Z" transform="translate(-8419.051 638.489)" fill="#efefef"/>
    <path id="Path_579" data-name="Path 579" d="M-3796.275,52.949s-229.48,31.011-255.839,237.233-34.112,336.468-282.2,322.513-252.738,234.132-252.738,234.132h824.889Z" transform="translate(5196 2095.54)" fill="#efefef"/>
    <path id="Path_562" data-name="Path 562" d="M-3796.275,846.827s-261.061.81-287.42-205.412.251-238.931-250.618-354.333-58.559-456.512-58.559-456.512l630.709,222.379Z" transform="translate(-3712.867 318.738) rotate(-150)" fill="#efefef"/>
    <path id="Path_559" data-name="Path 559" d="M-4652.538-20.9s19.507,217.369-267.531,280.072S-5182.027,473.753-5200.141,611.7s-193.682,139.339-206.222,19.508S-5335.3-55.736-5335.3-55.736Z" transform="translate(5249)" fill="#05d970"/>
    <g id="Ellipse_10" data-name="Ellipse 10" transform="translate(41 1016)" fill="#fff" stroke="#efefef" stroke-width="1">
      <circle cx="31" cy="31" r="31" stroke="none"/>
      <circle cx="31" cy="31" r="30.5" fill="none"/>
    </g>
    <circle id="Ellipse_11" data-name="Ellipse 11" cx="31" cy="31" r="31" transform="translate(885 1614)" fill="#efefef"/>
    <g id="Ellipse_12" data-name="Ellipse 12" transform="translate(585 1731)" fill="none" stroke="#efefef" stroke-width="1">
      <circle cx="12" cy="12" r="12" stroke="none"/>
      <circle cx="12" cy="12" r="11.5" fill="none"/>
    </g>
  </g>
</svg>
