<svg xmlns="http://www.w3.org/2000/svg" xmlns:xlink="http://www.w3.org/1999/xlink" width="119" height="102" viewBox="0 0 119 102">
  <defs>
    <clipPath id="clip-Web_1920_1">
      <rect width="119" height="102"/>
    </clipPath>
  </defs>
  <g id="Web_1920_1" data-name="Web 1920 – 1" clip-path="url(#clip-Web_1920_1)">
    <rect width="119" height="102" fill="#fff"/>
    <path id="f_1_" d="M18,32V18h6l1-6H18V9a2.652,2.652,0,0,1,3-3h3V0H19c-5,0-7,3-7,8v4H6v6h6V32Z" transform="translate(44 35)" fill="#3b5998"/>
  </g>
</svg>
